EESchema Schematic File Version 4
EELAYER 30 0
EELAYER END
$Descr A3 16535 11693
encoding utf-8
Sheet 1 1
Title ""
Date ""
Rev ""
Comp ""
Comment1 ""
Comment2 ""
Comment3 ""
Comment4 ""
$EndDescr
$Comp
L Diode:1N4148 D1
U 1 1 5EDE7569
P 1750 2050
F 0 "D1" V 1704 2130 50  0000 L CNN
F 1 "S3G" V 1795 2130 50  0000 L CNN
F 2 "Diode_SMD:D_SMC_Handsoldering" H 1750 1875 50  0001 C CNN
F 3 "https://assets.nexperia.com/documents/data-sheet/1N4148_1N4448.pdf" H 1750 2050 50  0001 C CNN
	1    1750 2050
	0    1    1    0   
$EndComp
$Comp
L Diode:1N4148 D3
U 1 1 5EDF1C7C
P 2300 2050
F 0 "D3" V 2254 2130 50  0000 L CNN
F 1 "S3G" V 2345 2130 50  0000 L CNN
F 2 "Diode_SMD:D_SMC_Handsoldering" H 2300 1875 50  0001 C CNN
F 3 "https://assets.nexperia.com/documents/data-sheet/1N4148_1N4448.pdf" H 2300 2050 50  0001 C CNN
	1    2300 2050
	0    1    1    0   
$EndComp
$Comp
L Diode:1N4148 D2
U 1 1 5EDF25DF
P 1750 2550
F 0 "D2" V 1704 2630 50  0000 L CNN
F 1 "S3G" V 1795 2630 50  0000 L CNN
F 2 "Diode_SMD:D_SMC_Handsoldering" H 1750 2375 50  0001 C CNN
F 3 "https://assets.nexperia.com/documents/data-sheet/1N4148_1N4448.pdf" H 1750 2550 50  0001 C CNN
	1    1750 2550
	0    1    1    0   
$EndComp
$Comp
L Diode:1N4148 D4
U 1 1 5EDF2D39
P 2300 2550
F 0 "D4" V 2254 2630 50  0000 L CNN
F 1 "S3G" V 2345 2630 50  0000 L CNN
F 2 "Diode_SMD:D_SMC_Handsoldering" H 2300 2375 50  0001 C CNN
F 3 "https://assets.nexperia.com/documents/data-sheet/1N4148_1N4448.pdf" H 2300 2550 50  0001 C CNN
	1    2300 2550
	0    1    1    0   
$EndComp
$Comp
L Device:CP1 C3
U 1 1 5EDF3068
P 3050 2050
F 0 "C3" H 3165 2096 50  0000 L CNN
F 1 "100uF 63V Low ESR 105°" H 3165 2005 50  0000 L CNN
F 2 "Capacitor_THT:C_Radial_D10.0mm_H12.5mm_P5.00mm" H 3050 2050 50  0001 C CNN
F 3 "~" H 3050 2050 50  0001 C CNN
	1    3050 2050
	1    0    0    -1  
$EndComp
Wire Wire Line
	1750 1900 2300 1900
Wire Wire Line
	2300 1900 3050 1900
Connection ~ 2300 1900
Connection ~ 3050 1900
Wire Wire Line
	1750 2200 1750 2400
Wire Wire Line
	2300 2200 2300 2350
Wire Wire Line
	1750 2700 2300 2700
Wire Wire Line
	2300 2700 2700 2700
Connection ~ 2300 2700
$Comp
L Device:R_US R8
U 1 1 5EDEB4A1
P 4650 2050
F 0 "R8" H 4718 2096 50  0000 L CNN
F 1 "220R 1/2W" V 4500 1700 50  0000 L CNN
F 2 "Resistor_SMD:R_2010_5025Metric_Pad1.52x2.65mm_HandSolder" V 4690 2040 50  0001 C CNN
F 3 "~" H 4650 2050 50  0001 C CNN
	1    4650 2050
	1    0    0    -1  
$EndComp
$Comp
L Device:R_US R9
U 1 1 5EDEC38A
P 4650 2500
F 0 "R9" H 4718 2546 50  0000 L CNN
F 1 "220R 1/2W" H 4718 2455 50  0000 L CNN
F 2 "Resistor_SMD:R_2010_5025Metric_Pad1.52x2.65mm_HandSolder" V 4690 2490 50  0001 C CNN
F 3 "~" H 4650 2500 50  0001 C CNN
	1    4650 2500
	1    0    0    -1  
$EndComp
$Comp
L Device:R_US R10
U 1 1 5EDEC769
P 4650 2950
F 0 "R10" H 4718 2996 50  0000 L CNN
F 1 "220R 1/2W" H 4718 2905 50  0000 L CNN
F 2 "Resistor_SMD:R_2010_5025Metric_Pad1.52x2.65mm_HandSolder" V 4690 2940 50  0001 C CNN
F 3 "~" H 4650 2950 50  0001 C CNN
	1    4650 2950
	1    0    0    -1  
$EndComp
$Comp
L Device:R_US R11
U 1 1 5EDECD22
P 4650 3400
F 0 "R11" H 4718 3446 50  0000 L CNN
F 1 "220R 1/2W" H 4718 3355 50  0000 L CNN
F 2 "Resistor_SMD:R_2010_5025Metric_Pad1.52x2.65mm_HandSolder" V 4690 3390 50  0001 C CNN
F 3 "~" H 4650 3400 50  0001 C CNN
	1    4650 3400
	1    0    0    -1  
$EndComp
Wire Wire Line
	4650 2650 4650 2800
Wire Wire Line
	4650 3100 4650 3250
Connection ~ 4650 1900
$Comp
L Device:R_US R14
U 1 1 5EDF3F95
P 5800 3000
F 0 "R14" H 5868 3046 50  0000 L CNN
F 1 "4K7" H 5868 2955 50  0000 L CNN
F 2 "Resistor_SMD:R_0805_2012Metric_Pad1.15x1.40mm_HandSolder" V 5840 2990 50  0001 C CNN
F 3 "~" H 5800 3000 50  0001 C CNN
	1    5800 3000
	1    0    0    -1  
$EndComp
$Comp
L Diode:1N4148 D10
U 1 1 5EDF428A
P 6600 2850
F 0 "D10" V 6554 2930 50  0000 L CNN
F 1 "ES3DB-13-F" V 6645 2930 50  0000 L CNN
F 2 "Diode_SMD:D_SMB_Handsoldering" H 6600 2675 50  0001 C CNN
F 3 "https://assets.nexperia.com/documents/data-sheet/1N4148_1N4448.pdf" H 6600 2850 50  0001 C CNN
	1    6600 2850
	0    1    1    0   
$EndComp
Wire Wire Line
	6600 1900 6600 2350
Connection ~ 6600 2350
Wire Wire Line
	6600 2350 6600 2500
Wire Wire Line
	5800 2650 5800 2850
Wire Wire Line
	5800 3150 6600 3150
Wire Wire Line
	6600 3150 6600 3000
$Comp
L Device:Q_NMOS_GDS Q2
U 1 1 5EDF8C60
P 6500 3850
F 0 "Q2" H 6704 3896 50  0000 L CNN
F 1 "IPD25CN10NGATMA1" H 6704 3805 50  0000 L CNN
F 2 "Package_TO_SOT_SMD:TO-252-3_TabPin2" H 6700 3950 50  0001 C CNN
F 3 "~" H 6500 3850 50  0001 C CNN
	1    6500 3850
	1    0    0    -1  
$EndComp
Connection ~ 6600 3150
Wire Wire Line
	6600 3150 6600 3500
$Comp
L Diode:BAV99 D8
U 1 1 5EDFC8DF
P 5700 4050
F 0 "D8" V 5746 4129 50  0000 L CNN
F 1 "BAV99" V 5655 4129 50  0000 L CNN
F 2 "Package_TO_SOT_SMD:SOT-23" H 5700 3550 50  0001 C CNN
F 3 "https://assets.nexperia.com/documents/data-sheet/BAV99_SER.pdf" H 5700 4050 50  0001 C CNN
	1    5700 4050
	0    -1   -1   0   
$EndComp
Wire Wire Line
	6300 3850 6100 3850
Wire Wire Line
	6100 3850 6100 4050
Wire Wire Line
	6100 4050 5900 4050
$Comp
L Device:R_US R15
U 1 1 5EDEBFB7
P 6600 4550
F 0 "R15" H 6668 4596 50  0000 L CNN
F 1 "0,1R 3W PTH" H 6000 4400 50  0000 L CNN
F 2 "Resistor_THT:R_Axial_Power_L20.0mm_W6.4mm_P25.40mm" V 6640 4540 50  0001 C CNN
F 3 "~" H 6600 4550 50  0001 C CNN
	1    6600 4550
	-1   0    0    1   
$EndComp
Wire Wire Line
	6600 4050 6600 4400
Connection ~ 6600 4400
Wire Wire Line
	5700 4350 5700 4400
Wire Wire Line
	5700 4400 6100 4400
Connection ~ 6100 4400
Wire Wire Line
	6100 4400 6600 4400
$Comp
L E001-rescue:UC3842_SOIC8-Regulator_Controller U1
U 1 1 5EE08050
P 2850 5450
F 0 "U1" H 2850 5917 50  0000 C CNN
F 1 "UC3842_SOIC8" H 2850 5826 50  0000 C CNN
F 2 "Package_SO:SOIC-8_3.9x4.9mm_P1.27mm" H 2850 5000 50  0001 C CNN
F 3 "http://www.ti.com/lit/ds/symlink/uc3842.pdf" H 2850 5450 50  0001 C CNN
	1    2850 5450
	1    0    0    -1  
$EndComp
$Comp
L Device:R_US R12
U 1 1 5EE0D8E1
P 5200 4050
F 0 "R12" H 5268 4096 50  0000 L CNN
F 1 "100R" H 5268 4005 50  0000 L CNN
F 2 "Resistor_SMD:R_0805_2012Metric_Pad1.15x1.40mm_HandSolder" V 5240 4040 50  0001 C CNN
F 3 "~" H 5200 4050 50  0001 C CNN
	1    5200 4050
	0    1    1    0   
$EndComp
Wire Wire Line
	4650 3550 4650 5400
Wire Wire Line
	4650 5400 4200 5400
$Comp
L Diode:DZ2S180X0L DZ1
U 1 1 5EE15D74
P 4200 5650
F 0 "DZ1" V 4154 5730 50  0000 L CNN
F 1 "18V 1W" V 4245 5730 50  0000 L CNN
F 2 "Diode_SMD:D_SMA_Handsoldering" H 4200 5475 50  0001 C CNN
F 3 "https://industrial.panasonic.com/content/data/SC/ds/ds4/DZ2S18000L_E.pdf" H 4200 5650 50  0001 C CNN
	1    4200 5650
	0    1    1    0   
$EndComp
$Comp
L Device:CP1 C5
U 1 1 5EE18B0A
P 4650 5700
F 0 "C5" H 4765 5746 50  0000 L CNN
F 1 "100uF 25V 105° SMD" H 4765 5655 50  0000 L CNN
F 2 "Capacitor_SMD:C_Elec_6.3x7.7" H 4650 5700 50  0001 C CNN
F 3 "~" H 4650 5700 50  0001 C CNN
	1    4650 5700
	1    0    0    -1  
$EndComp
Connection ~ 4200 5400
Wire Wire Line
	4200 5400 3350 5400
Wire Wire Line
	4650 5550 4650 5400
Connection ~ 4650 5400
Wire Wire Line
	4650 5900 4650 5850
Wire Wire Line
	3350 5500 3850 5500
Wire Wire Line
	3850 5500 3850 4050
$Comp
L power:GND #PWR04
U 1 1 5EE2C8AE
P 4450 6000
F 0 "#PWR04" H 4450 5750 50  0001 C CNN
F 1 "GND" H 4455 5827 50  0000 C CNN
F 2 "" H 4450 6000 50  0001 C CNN
F 3 "" H 4450 6000 50  0001 C CNN
	1    4450 6000
	1    0    0    -1  
$EndComp
Wire Wire Line
	4450 6000 4450 5900
Wire Wire Line
	3850 4050 5050 4050
Connection ~ 4450 5900
Wire Wire Line
	4450 5900 4650 5900
$Comp
L power:GND #PWR01
U 1 1 5EE2E6C1
P 2700 2700
F 0 "#PWR01" H 2700 2450 50  0001 C CNN
F 1 "GND" H 2705 2527 50  0000 C CNN
F 2 "" H 2700 2700 50  0001 C CNN
F 3 "" H 2700 2700 50  0001 C CNN
	1    2700 2700
	1    0    0    -1  
$EndComp
Connection ~ 2700 2700
Wire Wire Line
	2700 2700 3050 2700
$Comp
L power:GND #PWR06
U 1 1 5EE2F20E
P 6600 4850
F 0 "#PWR06" H 6600 4600 50  0001 C CNN
F 1 "GND" H 6605 4677 50  0000 C CNN
F 2 "" H 6600 4850 50  0001 C CNN
F 3 "" H 6600 4850 50  0001 C CNN
	1    6600 4850
	1    0    0    -1  
$EndComp
$Comp
L Device:R_US R7
U 1 1 5EE33B73
P 4100 6900
F 0 "R7" H 4168 6946 50  0000 L CNN
F 1 "2K9" H 4168 6855 50  0000 L CNN
F 2 "Resistor_SMD:R_0805_2012Metric_Pad1.15x1.40mm_HandSolder" V 4140 6890 50  0001 C CNN
F 3 "~" H 4100 6900 50  0001 C CNN
	1    4100 6900
	1    0    0    -1  
$EndComp
$Comp
L Device:R_US R4
U 1 1 5EE3555F
P 2950 6250
F 0 "R4" H 3018 6296 50  0000 L CNN
F 1 "1K" H 3018 6205 50  0000 L CNN
F 2 "Resistor_SMD:R_0805_2012Metric_Pad1.15x1.40mm_HandSolder" V 2990 6240 50  0001 C CNN
F 3 "~" H 2950 6250 50  0001 C CNN
	1    2950 6250
	1    0    0    -1  
$EndComp
$Comp
L Device:R_US R3
U 1 1 5EE3726B
P 1950 5300
F 0 "R3" H 2018 5346 50  0000 L CNN
F 1 "1K" H 2018 5255 50  0000 L CNN
F 2 "Resistor_SMD:R_0805_2012Metric_Pad1.15x1.40mm_HandSolder" V 1990 5290 50  0001 C CNN
F 3 "~" H 1950 5300 50  0001 C CNN
	1    1950 5300
	0    -1   -1   0   
$EndComp
$Comp
L Device:R_US R2
U 1 1 5EE38D55
P 1450 5600
F 0 "R2" H 1518 5646 50  0000 L CNN
F 1 "1K" H 1518 5555 50  0000 L CNN
F 2 "Resistor_SMD:R_0805_2012Metric_Pad1.15x1.40mm_HandSolder" V 1490 5590 50  0001 C CNN
F 3 "~" H 1450 5600 50  0001 C CNN
	1    1450 5600
	0    -1   -1   0   
$EndComp
$Comp
L Device:R_US R1
U 1 1 5EE3AC4E
P 1000 6500
F 0 "R1" H 1068 6546 50  0000 L CNN
F 1 "15K" H 1068 6455 50  0000 L CNN
F 2 "Resistor_SMD:R_0805_2012Metric_Pad1.15x1.40mm_HandSolder" V 1040 6490 50  0001 C CNN
F 3 "~" H 1000 6500 50  0001 C CNN
	1    1000 6500
	-1   0    0    1   
$EndComp
Wire Wire Line
	3900 6300 3900 6050
$Comp
L Device:C C2
U 1 1 5EE41C1E
P 2500 6250
F 0 "C2" H 2615 6296 50  0000 L CNN
F 1 "100nF" H 2615 6205 50  0000 L CNN
F 2 "Capacitor_SMD:C_0805_2012Metric_Pad1.15x1.40mm_HandSolder" H 2538 6100 50  0001 C CNN
F 3 "~" H 2500 6250 50  0001 C CNN
	1    2500 6250
	1    0    0    -1  
$EndComp
$Comp
L Device:C C1
U 1 1 5EE43359
P 1900 6250
F 0 "C1" H 2015 6296 50  0000 L CNN
F 1 "100nF" H 2015 6205 50  0000 L CNN
F 2 "Capacitor_SMD:C_0805_2012Metric_Pad1.15x1.40mm_HandSolder" H 1938 6100 50  0001 C CNN
F 3 "~" H 1900 6250 50  0001 C CNN
	1    1900 6250
	1    0    0    -1  
$EndComp
Wire Wire Line
	3350 5600 3350 5900
Wire Wire Line
	3350 6500 2950 6500
Wire Wire Line
	2950 6500 2500 6500
Connection ~ 2950 6500
Wire Wire Line
	2950 6500 2950 6400
Wire Wire Line
	2500 6050 2950 6050
Wire Wire Line
	2950 6100 2950 6050
Connection ~ 2950 6050
Wire Wire Line
	2500 6500 2500 6400
Wire Wire Line
	2500 6100 2500 6050
Wire Wire Line
	2350 5500 2150 5500
Wire Wire Line
	2150 5500 2150 6050
Wire Wire Line
	2150 6050 2500 6050
Connection ~ 2500 6050
Wire Wire Line
	2500 6500 1900 6500
Wire Wire Line
	1900 6500 1900 6400
Connection ~ 2500 6500
Wire Wire Line
	1900 6100 1900 5600
Wire Wire Line
	1900 5600 2350 5600
Wire Wire Line
	1900 5600 1650 5600
Connection ~ 1900 5600
Wire Wire Line
	1300 5600 1300 4850
Wire Wire Line
	1300 4850 3500 4850
Wire Wire Line
	3500 4850 3500 5300
Wire Wire Line
	3500 5300 3350 5300
Wire Wire Line
	2350 5300 2100 5300
Wire Wire Line
	1800 5300 1800 5400
Wire Wire Line
	1800 5400 2350 5400
Wire Wire Line
	1800 5300 1000 5300
Wire Wire Line
	1000 5300 1000 6350
Connection ~ 1800 5300
Connection ~ 3350 5900
Wire Wire Line
	3350 5900 3350 6500
$Comp
L Transistor_BJT:BC817 Q1
U 1 1 5EE840C1
P 3400 6850
F 0 "Q1" H 3591 6896 50  0000 L CNN
F 1 "BC817" H 3591 6805 50  0000 L CNN
F 2 "Package_TO_SOT_SMD:SOT-23" H 3600 6775 50  0001 L CIN
F 3 "http://www.fairchildsemi.com/ds/BC/BC817.pdf" H 3400 6850 50  0001 L CNN
	1    3400 6850
	1    0    0    -1  
$EndComp
Wire Wire Line
	1650 5600 1650 6850
Wire Wire Line
	1650 6850 3200 6850
Connection ~ 1650 5600
Wire Wire Line
	1650 5600 1600 5600
Wire Wire Line
	2950 6050 3900 6050
Wire Wire Line
	3500 7050 3500 7100
Wire Wire Line
	3500 7100 4100 7100
Wire Wire Line
	4100 7100 4100 7050
Wire Wire Line
	4100 6750 4100 6300
Connection ~ 4100 6300
Wire Wire Line
	4100 6300 3900 6300
Wire Wire Line
	6100 6300 6100 4400
Wire Wire Line
	5700 6300 6100 6300
$Comp
L Device:R_US R13
U 1 1 5EE04517
P 5550 6300
F 0 "R13" H 5618 6346 50  0000 L CNN
F 1 "1K" H 5618 6255 50  0000 L CNN
F 2 "Resistor_SMD:R_0805_2012Metric_Pad1.15x1.40mm_HandSolder" V 5590 6290 50  0001 C CNN
F 3 "~" H 5550 6300 50  0001 C CNN
	1    5550 6300
	0    1    1    0   
$EndComp
$Comp
L Device:R_US R26
U 1 1 5EE53CC7
P 9200 8450
F 0 "R26" H 9268 8496 50  0000 L CNN
F 1 "15K" H 9268 8405 50  0000 L CNN
F 2 "Resistor_SMD:R_0805_2012Metric_Pad1.15x1.40mm_HandSolder" V 9240 8440 50  0001 C CNN
F 3 "~" H 9200 8450 50  0001 C CNN
	1    9200 8450
	0    1    1    0   
$EndComp
$Comp
L Device:R_US R28
U 1 1 5EE54A8B
P 9800 6700
F 0 "R28" H 9868 6746 50  0000 L CNN
F 1 "56K" H 9868 6655 50  0000 L CNN
F 2 "Resistor_SMD:R_0805_2012Metric_Pad1.15x1.40mm_HandSolder" V 9840 6690 50  0001 C CNN
F 3 "~" H 9800 6700 50  0001 C CNN
	1    9800 6700
	-1   0    0    1   
$EndComp
$Comp
L Device:R_US R29
U 1 1 5EE569AA
P 9800 7100
F 0 "R29" H 9868 7146 50  0000 L CNN
F 1 "56K" H 9868 7055 50  0000 L CNN
F 2 "Resistor_SMD:R_0805_2012Metric_Pad1.15x1.40mm_HandSolder" V 9840 7090 50  0001 C CNN
F 3 "~" H 9800 7100 50  0001 C CNN
	1    9800 7100
	-1   0    0    1   
$EndComp
$Comp
L Device:R_US R30
U 1 1 5EE56DB5
P 10000 7800
F 0 "R30" H 10068 7846 50  0000 L CNN
F 1 "15K" H 10068 7755 50  0000 L CNN
F 2 "Resistor_SMD:R_0805_2012Metric_Pad1.15x1.40mm_HandSolder" V 10040 7790 50  0001 C CNN
F 3 "~" H 10000 7800 50  0001 C CNN
	1    10000 7800
	0    -1   -1   0   
$EndComp
$Comp
L Device:R_US R32
U 1 1 5EE57643
P 10450 7800
F 0 "R32" H 10518 7846 50  0000 L CNN
F 1 "1K" H 10518 7755 50  0000 L CNN
F 2 "Resistor_SMD:R_0805_2012Metric_Pad1.15x1.40mm_HandSolder" V 10490 7790 50  0001 C CNN
F 3 "~" H 10450 7800 50  0001 C CNN
	1    10450 7800
	0    -1   -1   0   
$EndComp
$Comp
L Device:R_US R31
U 1 1 5EE57B10
P 10250 7300
F 0 "R31" H 10318 7346 50  0000 L CNN
F 1 "2K7" H 10318 7255 50  0000 L CNN
F 2 "Resistor_SMD:R_0805_2012Metric_Pad1.15x1.40mm_HandSolder" V 10290 7290 50  0001 C CNN
F 3 "~" H 10250 7300 50  0001 C CNN
	1    10250 7300
	1    0    0    -1  
$EndComp
$Comp
L Device:C C6
U 1 1 5EE58465
P 8900 7000
F 0 "C6" H 9015 7046 50  0000 L CNN
F 1 "100nF" H 9015 6955 50  0000 L CNN
F 2 "Capacitor_SMD:C_0805_2012Metric_Pad1.15x1.40mm_HandSolder" H 8938 6850 50  0001 C CNN
F 3 "~" H 8900 7000 50  0001 C CNN
	1    8900 7000
	0    1    1    0   
$EndComp
$Comp
L E001:LM358 U2
U 1 1 5EE8913C
P 9300 7700
F 0 "U2" H 8950 8000 50  0000 C CNN
F 1 "LM358" H 8950 7900 50  0000 C CNN
F 2 "Package_SO:SOIC-8_3.9x4.9mm_P1.27mm" H 8900 8450 50  0001 C CNN
F 3 "http://www.ti.com/lit/ds/symlink/lm2904-n.pdf" H 8900 8450 50  0001 C CNN
	1    9300 7700
	1    0    0    -1  
$EndComp
$Comp
L E001:LM358 U2
U 2 1 5EE8C29D
P 11150 7800
F 0 "U2" H 11050 8167 50  0000 C CNN
F 1 "LM358" H 11050 8076 50  0000 C CNN
F 2 "Package_SO:SOIC-8_3.9x4.9mm_P1.27mm" H 10750 8550 50  0001 C CNN
F 3 "http://www.ti.com/lit/ds/symlink/lm2904-n.pdf" H 10750 8550 50  0001 C CNN
	2    11150 7800
	1    0    0    -1  
$EndComp
Wire Wire Line
	8900 7700 8900 8450
Wire Wire Line
	8900 8450 9050 8450
Wire Wire Line
	9350 8450 9500 8450
Wire Wire Line
	9500 8450 9500 7800
Wire Wire Line
	9500 7800 9850 7800
Connection ~ 9500 7800
Wire Wire Line
	10150 7800 10250 7800
Wire Wire Line
	10250 7450 10250 7800
Connection ~ 10250 7800
Wire Wire Line
	10250 7800 10300 7800
Wire Wire Line
	10600 7800 10700 7800
Wire Wire Line
	9500 7600 9500 6950
Wire Wire Line
	9500 6950 9800 6950
Wire Wire Line
	9800 6950 9800 6850
Connection ~ 9800 6950
Wire Wire Line
	9200 7400 9200 7000
Wire Wire Line
	9200 7000 9050 7000
Wire Wire Line
	11350 7900 11500 7900
Wire Wire Line
	11500 7900 11500 8250
Wire Wire Line
	11500 8250 10700 8250
Wire Wire Line
	10700 8250 10700 7800
Connection ~ 10700 7800
Wire Wire Line
	10700 7800 10750 7800
$Comp
L E001:+18V #PWR08
U 1 1 5EEE114E
P 9200 6800
F 0 "#PWR08" H 9200 6650 50  0001 C CNN
F 1 "+18V" H 9215 6973 50  0000 C CNN
F 2 "" H 9200 6800 50  0001 C CNN
F 3 "" H 9200 6800 50  0001 C CNN
	1    9200 6800
	1    0    0    -1  
$EndComp
$Comp
L power:GND #PWR07
U 1 1 5EEE7EBC
P 8600 7100
F 0 "#PWR07" H 8600 6850 50  0001 C CNN
F 1 "GND" H 8605 6927 50  0000 C CNN
F 2 "" H 8600 7100 50  0001 C CNN
F 3 "" H 8600 7100 50  0001 C CNN
	1    8600 7100
	1    0    0    -1  
$EndComp
$Comp
L power:GND #PWR017
U 1 1 5EEE8620
P 11900 8250
F 0 "#PWR017" H 11900 8000 50  0001 C CNN
F 1 "GND" H 11905 8077 50  0000 C CNN
F 2 "" H 11900 8250 50  0001 C CNN
F 3 "" H 11900 8250 50  0001 C CNN
	1    11900 8250
	1    0    0    -1  
$EndComp
$Comp
L power:GND #PWR09
U 1 1 5EEE8A62
P 9200 8100
F 0 "#PWR09" H 9200 7850 50  0001 C CNN
F 1 "GND" H 9205 7927 50  0000 C CNN
F 2 "" H 9200 8100 50  0001 C CNN
F 3 "" H 9200 8100 50  0001 C CNN
	1    9200 8100
	1    0    0    -1  
$EndComp
Wire Wire Line
	9200 8000 9200 8100
$Comp
L power:GND #PWR012
U 1 1 5EF060F4
P 9800 7400
F 0 "#PWR012" H 9800 7150 50  0001 C CNN
F 1 "GND" H 9805 7227 50  0000 C CNN
F 2 "" H 9800 7400 50  0001 C CNN
F 3 "" H 9800 7400 50  0001 C CNN
	1    9800 7400
	1    0    0    -1  
$EndComp
Wire Wire Line
	8750 7000 8600 7000
Wire Wire Line
	8600 7000 8600 7100
Wire Wire Line
	9800 7250 9800 7400
$Comp
L E001:+18V #PWR03
U 1 1 5EE173F4
P 4200 5250
F 0 "#PWR03" H 4200 5100 50  0001 C CNN
F 1 "+18V" H 4215 5423 50  0000 C CNN
F 2 "" H 4200 5250 50  0001 C CNN
F 3 "" H 4200 5250 50  0001 C CNN
	1    4200 5250
	1    0    0    -1  
$EndComp
Wire Wire Line
	4200 5250 4200 5400
$Comp
L E001:+18V #PWR02
U 1 1 5EE1F9E0
P 3500 6550
F 0 "#PWR02" H 3500 6400 50  0001 C CNN
F 1 "+18V" H 3515 6723 50  0000 C CNN
F 2 "" H 3500 6550 50  0001 C CNN
F 3 "" H 3500 6550 50  0001 C CNN
	1    3500 6550
	1    0    0    -1  
$EndComp
Wire Wire Line
	3500 6550 3500 6650
$Comp
L E001:+18V #PWR05
U 1 1 5EE27CCD
P 5700 3550
F 0 "#PWR05" H 5700 3400 50  0001 C CNN
F 1 "+18V" H 5715 3723 50  0000 C CNN
F 2 "" H 5700 3550 50  0001 C CNN
F 3 "" H 5700 3550 50  0001 C CNN
	1    5700 3550
	1    0    0    -1  
$EndComp
Wire Wire Line
	5700 3550 5700 3750
Wire Wire Line
	5400 6300 4100 6300
$Comp
L E001:FILO_A_SALDARE J4
U 1 1 5EE505F7
P 7950 2250
F 0 "J4" H 8028 2151 50  0000 L CNN
F 1 "FILO_A_SALDARE" H 8028 2060 50  0000 L CNN
F 2 "Connector_Wire:SolderWire-1sqmm_1x01_D1.4mm_OD3.9mm" H 7950 2250 50  0001 C CNN
F 3 "" H 7950 2250 50  0001 C CNN
	1    7950 2250
	1    0    0    -1  
$EndComp
$Comp
L E001:FILO_A_SALDARE J5
U 1 1 5EE51BBB
P 7950 2500
F 0 "J5" H 8028 2401 50  0000 L CNN
F 1 "FILO_A_SALDARE" H 8028 2310 50  0000 L CNN
F 2 "Connector_Wire:SolderWire-1sqmm_1x01_D1.4mm_OD3.9mm" H 7950 2500 50  0001 C CNN
F 3 "" H 7950 2500 50  0001 C CNN
	1    7950 2500
	1    0    0    -1  
$EndComp
$Comp
L E001:FILO_A_SALDARE J6
U 1 1 5EE51F1B
P 7950 3350
F 0 "J6" H 8028 3251 50  0000 L CNN
F 1 "FILO_A_SALDARE" H 8028 3160 50  0000 L CNN
F 2 "Connector_Wire:SolderWire-1sqmm_1x01_D1.4mm_OD3.9mm" H 7950 3350 50  0001 C CNN
F 3 "" H 7950 3350 50  0001 C CNN
	1    7950 3350
	1    0    0    -1  
$EndComp
$Comp
L E001:FILO_A_SALDARE J3
U 1 1 5EE52219
P 7300 1700
F 0 "J3" H 7378 1601 50  0000 L CNN
F 1 "FILO_A_SALDARE" H 7378 1510 50  0000 L CNN
F 2 "Connector_Wire:SolderWire-1sqmm_1x01_D1.4mm_OD3.9mm" H 7300 1700 50  0001 C CNN
F 3 "" H 7300 1700 50  0001 C CNN
	1    7300 1700
	-1   0    0    1   
$EndComp
Wire Wire Line
	7800 2400 7800 2500
Wire Wire Line
	7800 2500 6600 2500
Connection ~ 7800 2500
Wire Wire Line
	7800 2500 7800 2650
Connection ~ 6600 2500
Wire Wire Line
	6600 2500 6600 2700
Connection ~ 6600 3500
Wire Wire Line
	6600 3500 6600 3650
$Comp
L Device:R_US R25
U 1 1 5EE711E7
P 9050 1550
F 0 "R25" H 9118 1596 50  0000 L CNN
F 1 "10K" H 9118 1505 50  0000 L CNN
F 2 "Resistor_SMD:R_0805_2012Metric_Pad1.15x1.40mm_HandSolder" V 9090 1540 50  0001 C CNN
F 3 "~" H 9050 1550 50  0001 C CNN
	1    9050 1550
	0    1    1    0   
$EndComp
$Comp
L Device:R_US R27
U 1 1 5EE729B5
P 9550 1950
F 0 "R27" H 9618 1996 50  0000 L CNN
F 1 "1K" H 9618 1905 50  0000 L CNN
F 2 "Resistor_SMD:R_0805_2012Metric_Pad1.15x1.40mm_HandSolder" V 9590 1940 50  0001 C CNN
F 3 "~" H 9550 1950 50  0001 C CNN
	1    9550 1950
	-1   0    0    1   
$EndComp
$Comp
L Transistor_BJT:BC817 Q3
U 1 1 5EE72E53
P 10000 1550
F 0 "Q3" H 10191 1596 50  0000 L CNN
F 1 "BC817" H 10191 1505 50  0000 L CNN
F 2 "Package_TO_SOT_SMD:SOT-23" H 10200 1475 50  0001 L CIN
F 3 "http://www.fairchildsemi.com/ds/BC/BC817.pdf" H 10000 1550 50  0001 L CNN
	1    10000 1550
	1    0    0    -1  
$EndComp
$Comp
L Device:R_US R33
U 1 1 5EE74A75
P 10550 1200
F 0 "R33" H 10618 1246 50  0000 L CNN
F 1 "1K" H 10618 1155 50  0000 L CNN
F 2 "Resistor_SMD:R_0805_2012Metric_Pad1.15x1.40mm_HandSolder" V 10590 1190 50  0001 C CNN
F 3 "~" H 10550 1200 50  0001 C CNN
	1    10550 1200
	-1   0    0    1   
$EndComp
$Comp
L Transistor_BJT:BC817 Q4
U 1 1 5EE75EF8
P 11200 1350
F 0 "Q4" H 11391 1396 50  0000 L CNN
F 1 "BC817" H 11391 1305 50  0000 L CNN
F 2 "Package_TO_SOT_SMD:SOT-23" H 11400 1275 50  0001 L CIN
F 3 "http://www.fairchildsemi.com/ds/BC/BC817.pdf" H 11200 1350 50  0001 L CNN
	1    11200 1350
	1    0    0    -1  
$EndComp
Wire Wire Line
	9200 1550 9550 1550
Wire Wire Line
	9550 1800 9550 1550
Connection ~ 9550 1550
Wire Wire Line
	9550 1550 9800 1550
Wire Wire Line
	10100 1350 10550 1350
Wire Wire Line
	11000 1350 10550 1350
Connection ~ 10550 1350
$Comp
L power:GND #PWR010
U 1 1 5EEA77B7
P 9550 2200
F 0 "#PWR010" H 9550 1950 50  0001 C CNN
F 1 "GND" H 9555 2027 50  0000 C CNN
F 2 "" H 9550 2200 50  0001 C CNN
F 3 "" H 9550 2200 50  0001 C CNN
	1    9550 2200
	1    0    0    -1  
$EndComp
$Comp
L power:GND #PWR013
U 1 1 5EEA859C
P 10100 1900
F 0 "#PWR013" H 10100 1650 50  0001 C CNN
F 1 "GND" H 10105 1727 50  0000 C CNN
F 2 "" H 10100 1900 50  0001 C CNN
F 3 "" H 10100 1900 50  0001 C CNN
	1    10100 1900
	1    0    0    -1  
$EndComp
$Comp
L power:GND #PWR016
U 1 1 5EEA8B73
P 11300 1650
F 0 "#PWR016" H 11300 1400 50  0001 C CNN
F 1 "GND" H 11305 1477 50  0000 C CNN
F 2 "" H 11300 1650 50  0001 C CNN
F 3 "" H 11300 1650 50  0001 C CNN
	1    11300 1650
	1    0    0    -1  
$EndComp
Wire Wire Line
	9550 2100 9550 2200
Wire Wire Line
	10100 1750 10100 1900
Wire Wire Line
	11300 1550 11300 1650
$Comp
L E001:+18V #PWR015
U 1 1 5EEC3084
P 10550 950
F 0 "#PWR015" H 10550 800 50  0001 C CNN
F 1 "+18V" H 10565 1123 50  0000 C CNN
F 2 "" H 10550 950 50  0001 C CNN
F 3 "" H 10550 950 50  0001 C CNN
	1    10550 950 
	1    0    0    -1  
$EndComp
Wire Wire Line
	10550 950  10550 1050
$Comp
L Switch:SW_Push SW1
U 1 1 5EE2CA05
P 12350 1250
F 0 "SW1" V 12304 1398 50  0000 L CNN
F 1 "SW_STOP" V 12395 1398 50  0000 L CNN
F 2 "E001:SW_PUSH_6x6mm_H9.5mm_PTH_SMD" H 12350 1450 50  0001 C CNN
F 3 "~" H 12350 1450 50  0001 C CNN
	1    12350 1250
	0    1    1    0   
$EndComp
$Comp
L power:GND #PWR018
U 1 1 5EE2EA9E
P 12350 1650
F 0 "#PWR018" H 12350 1400 50  0001 C CNN
F 1 "GND" H 12355 1477 50  0000 C CNN
F 2 "" H 12350 1650 50  0001 C CNN
F 3 "" H 12350 1650 50  0001 C CNN
	1    12350 1650
	1    0    0    -1  
$EndComp
$Comp
L Device:R_US R34
U 1 1 5EE2EFAF
P 13000 1050
F 0 "R34" H 13068 1096 50  0000 L CNN
F 1 "100R" H 13068 1005 50  0000 L CNN
F 2 "Resistor_SMD:R_0805_2012Metric_Pad1.15x1.40mm_HandSolder" V 13040 1040 50  0001 C CNN
F 3 "~" H 13000 1050 50  0001 C CNN
	1    13000 1050
	0    -1   -1   0   
$EndComp
Wire Wire Line
	11300 1150 11300 1050
Wire Wire Line
	11300 1050 12350 1050
Wire Wire Line
	12350 1450 12350 1650
Wire Wire Line
	12850 1050 12350 1050
Connection ~ 12350 1050
$Comp
L Diode:BAV99 D11
U 1 1 5EE5B029
P 13850 2500
F 0 "D11" V 13896 2579 50  0000 L CNN
F 1 "BAV99" V 13805 2579 50  0000 L CNN
F 2 "Package_TO_SOT_SMD:SOT-23" H 13850 2000 50  0001 C CNN
F 3 "https://assets.nexperia.com/documents/data-sheet/BAV99_SER.pdf" H 13850 2500 50  0001 C CNN
	1    13850 2500
	0    1    1    0   
$EndComp
$Comp
L Switch:SW_Push SW2
U 1 1 5EE5DCC8
P 13850 1300
F 0 "SW2" V 13804 1448 50  0000 L CNN
F 1 "SW_+" V 13895 1448 50  0000 L CNN
F 2 "E001:SW_PUSH_6x6mm_H9.5mm_PTH_SMD" H 13850 1500 50  0001 C CNN
F 3 "~" H 13850 1500 50  0001 C CNN
	1    13850 1300
	0    1    1    0   
$EndComp
$Comp
L Device:R_US R35
U 1 1 5EE5E2E7
P 13850 1850
F 0 "R35" H 13918 1896 50  0000 L CNN
F 1 "15K" H 13918 1805 50  0000 L CNN
F 2 "Resistor_SMD:R_0805_2012Metric_Pad1.15x1.40mm_HandSolder" V 13890 1840 50  0001 C CNN
F 3 "~" H 13850 1850 50  0001 C CNN
	1    13850 1850
	1    0    0    -1  
$EndComp
$Comp
L Device:R_US R36
U 1 1 5EE5EDF1
P 13850 3200
F 0 "R36" H 13918 3246 50  0000 L CNN
F 1 "15K" H 13918 3155 50  0000 L CNN
F 2 "Resistor_SMD:R_0805_2012Metric_Pad1.15x1.40mm_HandSolder" V 13890 3190 50  0001 C CNN
F 3 "~" H 13850 3200 50  0001 C CNN
	1    13850 3200
	1    0    0    -1  
$EndComp
$Comp
L Switch:SW_Push SW3
U 1 1 5EE5FADC
P 13850 3750
F 0 "SW3" V 13804 3898 50  0000 L CNN
F 1 "SW_-" V 13895 3898 50  0000 L CNN
F 2 "E001:SW_PUSH_6x6mm_H9.5mm_PTH_SMD" H 13850 3950 50  0001 C CNN
F 3 "~" H 13850 3950 50  0001 C CNN
	1    13850 3750
	0    1    1    0   
$EndComp
$Comp
L Device:R_US R37
U 1 1 5EE606D8
P 14800 3700
F 0 "R37" H 14868 3746 50  0000 L CNN
F 1 "3K3" H 14868 3655 50  0000 L CNN
F 2 "Resistor_SMD:R_0805_2012Metric_Pad1.15x1.40mm_HandSolder" V 14840 3690 50  0001 C CNN
F 3 "~" H 14800 3700 50  0001 C CNN
	1    14800 3700
	1    0    0    -1  
$EndComp
$Comp
L Device:R_US R38
U 1 1 5EE60C9D
P 14800 4300
F 0 "R38" H 14868 4346 50  0000 L CNN
F 1 "1K5" H 14868 4255 50  0000 L CNN
F 2 "Resistor_SMD:R_0805_2012Metric_Pad1.15x1.40mm_HandSolder" V 14840 4290 50  0001 C CNN
F 3 "~" H 14800 4300 50  0001 C CNN
	1    14800 4300
	1    0    0    -1  
$EndComp
Wire Wire Line
	13850 1500 13850 1700
Wire Wire Line
	13850 2000 13850 2200
Wire Wire Line
	13850 2800 13850 3050
Wire Wire Line
	13850 3350 13850 3550
Wire Wire Line
	13850 3950 13850 4000
Wire Wire Line
	13850 4000 14800 4000
Wire Wire Line
	14800 4000 14800 3850
Wire Wire Line
	14800 4150 14800 4000
Connection ~ 14800 4000
Wire Wire Line
	13150 1050 13400 1050
Wire Wire Line
	13400 1050 13400 2500
Wire Wire Line
	13400 2500 13650 2500
Wire Wire Line
	1000 6650 1000 7700
Wire Wire Line
	1000 7700 8900 7700
Connection ~ 8900 7700
Wire Wire Line
	13400 2500 13400 7700
Connection ~ 13400 2500
$Comp
L E001:+18V #PWR019
U 1 1 5EF8A078
P 13850 950
F 0 "#PWR019" H 13850 800 50  0001 C CNN
F 1 "+18V" H 13865 1123 50  0000 C CNN
F 2 "" H 13850 950 50  0001 C CNN
F 3 "" H 13850 950 50  0001 C CNN
	1    13850 950 
	1    0    0    -1  
$EndComp
Wire Wire Line
	13850 950  13850 1100
$Comp
L E001:+18V #PWR020
U 1 1 5EF93E58
P 14800 3350
F 0 "#PWR020" H 14800 3200 50  0001 C CNN
F 1 "+18V" H 14815 3523 50  0000 C CNN
F 2 "" H 14800 3350 50  0001 C CNN
F 3 "" H 14800 3350 50  0001 C CNN
	1    14800 3350
	1    0    0    -1  
$EndComp
Wire Wire Line
	14800 3350 14800 3550
$Comp
L power:GND #PWR021
U 1 1 5EF9D8EC
P 14800 4600
F 0 "#PWR021" H 14800 4350 50  0001 C CNN
F 1 "GND" H 14805 4427 50  0000 C CNN
F 2 "" H 14800 4600 50  0001 C CNN
F 3 "" H 14800 4600 50  0001 C CNN
	1    14800 4600
	1    0    0    -1  
$EndComp
Wire Wire Line
	14800 4450 14800 4600
$Comp
L E001:+18V #PWR011
U 1 1 5EFA7775
P 9800 6400
F 0 "#PWR011" H 9800 6250 50  0001 C CNN
F 1 "+18V" H 9815 6573 50  0000 C CNN
F 2 "" H 9800 6400 50  0001 C CNN
F 3 "" H 9800 6400 50  0001 C CNN
	1    9800 6400
	1    0    0    -1  
$EndComp
$Comp
L E001:+18V #PWR014
U 1 1 5EFA7CE5
P 10250 7050
F 0 "#PWR014" H 10250 6900 50  0001 C CNN
F 1 "+18V" H 10265 7223 50  0000 C CNN
F 2 "" H 10250 7050 50  0001 C CNN
F 3 "" H 10250 7050 50  0001 C CNN
	1    10250 7050
	1    0    0    -1  
$EndComp
Wire Wire Line
	9200 6800 9200 7000
Connection ~ 9200 7000
Wire Wire Line
	9800 6400 9800 6550
Wire Wire Line
	10250 7050 10250 7150
$Comp
L E001:FILO_A_SALDARE J1
U 1 1 5EFC6FF8
P 1250 2200
F 0 "J1" H 1328 2101 50  0000 L CNN
F 1 "FILO_A_SALDARE" H 1328 2010 50  0000 L CNN
F 2 "Connector_Wire:SolderWire-1sqmm_1x01_D1.4mm_OD3.9mm" H 1250 2200 50  0001 C CNN
F 3 "" H 1250 2200 50  0001 C CNN
	1    1250 2200
	-1   0    0    1   
$EndComp
$Comp
L E001:FILO_A_SALDARE J2
U 1 1 5EFC89E3
P 1250 2650
F 0 "J2" H 1328 2551 50  0000 L CNN
F 1 "FILO_A_SALDARE" H 1328 2460 50  0000 L CNN
F 2 "Connector_Wire:SolderWire-1sqmm_1x01_D1.4mm_OD3.9mm" H 1250 2650 50  0001 C CNN
F 3 "" H 1250 2650 50  0001 C CNN
	1    1250 2650
	-1   0    0    1   
$EndComp
Wire Wire Line
	1400 2050 1400 2200
Wire Wire Line
	1400 2200 1750 2200
Connection ~ 1750 2200
Wire Wire Line
	1400 2500 1400 2350
Wire Wire Line
	1400 2350 2300 2350
Connection ~ 2300 2350
Wire Wire Line
	2300 2350 2300 2400
$Comp
L Mechanical:MountingHole H1
U 1 1 5EE52559
P 1900 10250
F 0 "H1" H 2000 10296 50  0000 L CNN
F 1 "MountingHole 3.5mm" H 2000 10205 50  0000 L CNN
F 2 "MountingHole:MountingHole_3.5mm" H 1900 10250 50  0001 C CNN
F 3 "~" H 1900 10250 50  0001 C CNN
	1    1900 10250
	1    0    0    -1  
$EndComp
$Comp
L Mechanical:MountingHole H3
U 1 1 5EE52DFE
P 2900 10250
F 0 "H3" H 3000 10296 50  0000 L CNN
F 1 "MountingHole 3.5mm" H 3000 10205 50  0000 L CNN
F 2 "MountingHole:MountingHole_3.5mm" H 2900 10250 50  0001 C CNN
F 3 "~" H 2900 10250 50  0001 C CNN
	1    2900 10250
	1    0    0    -1  
$EndComp
$Comp
L Mechanical:MountingHole H2
U 1 1 5EE530DD
P 1900 10550
F 0 "H2" H 2000 10596 50  0000 L CNN
F 1 "MountingHole 3.5mm" H 2000 10505 50  0000 L CNN
F 2 "MountingHole:MountingHole_3.5mm" H 1900 10550 50  0001 C CNN
F 3 "~" H 1900 10550 50  0001 C CNN
	1    1900 10550
	1    0    0    -1  
$EndComp
Wire Wire Line
	5350 4050 5900 4050
Connection ~ 5900 4050
Wire Wire Line
	7450 1550 8900 1550
Wire Wire Line
	6600 3500 7800 3500
Wire Wire Line
	3050 1900 4650 1900
Wire Wire Line
	3050 2200 3050 2700
$Comp
L Device:CP1 C4
U 1 1 5EEA4D1A
P 11900 7950
F 0 "C4" H 12015 7996 50  0000 L CNN
F 1 "100uF 25V 105° SMD" H 12015 7905 50  0000 L CNN
F 2 "Capacitor_SMD:C_Elec_6.3x7.7" H 11900 7950 50  0001 C CNN
F 3 "~" H 11900 7950 50  0001 C CNN
	1    11900 7950
	1    0    0    -1  
$EndComp
$Comp
L Device:LED D7
U 1 1 5EDF01E0
P 5800 2500
F 0 "D7" V 5839 2382 50  0000 R CNN
F 1 "LED_SMD" H 5950 2600 50  0000 R CNN
F 2 "Diode_SMD:D_0805_2012Metric_Pad1.15x1.40mm_HandSolder" H 5800 2500 50  0001 C CNN
F 3 "~" H 5800 2500 50  0001 C CNN
	1    5800 2500
	0    -1   -1   0   
$EndComp
Wire Wire Line
	4650 2300 4650 2350
Wire Wire Line
	4650 2200 4650 2300
Connection ~ 4650 2300
Wire Wire Line
	5050 2300 4650 2300
Wire Wire Line
	5050 2200 5050 2300
Wire Wire Line
	5050 1900 6600 1900
Wire Wire Line
	4650 1900 5050 1900
Connection ~ 5050 1900
$Comp
L Diode:1N4148 D6
U 1 1 5EDED877
P 5050 2050
F 0 "D6" V 5096 1970 50  0000 R CNN
F 1 "NM 1N4148" V 5005 1970 50  0000 R CNN
F 2 "Diode_SMD:D_MiniMELF_Handsoldering" H 5050 1875 50  0001 C CNN
F 3 "https://assets.nexperia.com/documents/data-sheet/1N4148_1N4448.pdf" H 5050 2050 50  0001 C CNN
	1    5050 2050
	0    -1   -1   0   
$EndComp
Wire Wire Line
	5800 2350 6600 2350
Wire Wire Line
	6600 4700 6600 4850
Wire Wire Line
	4200 5500 4200 5400
Wire Wire Line
	3350 5900 4200 5900
Wire Wire Line
	4200 5800 4200 5900
Connection ~ 4200 5900
Wire Wire Line
	4200 5900 4450 5900
Wire Wire Line
	11900 8100 11900 8250
Wire Wire Line
	11350 7700 11900 7700
Wire Wire Line
	11900 7700 11900 7800
Wire Wire Line
	11900 7700 13400 7700
Connection ~ 11900 7700
$EndSCHEMATC
